\relax 
\newlabel{FirstPage}{{}{1}{}{}{}}
\@writefile{toc}{\contentsline {section}{\numberline {I}Introduction}{2}{}}
\newlabel{gen_ternary}{{1}{2}{}{}{}}
\newlabel{dil_ternary_1}{{2}{2}{}{}{}}
\newlabel{dil_ternary_2}{{3}{2}{}{}{}}
\@writefile{toc}{\contentsline {section}{\numberline {II}Phase Field Free Energy}{3}{}}
\newlabel{func}{{4}{3}{}{}{}}
\newlabel{pf_dil_energy}{{5}{3}{}{}{}}
\@writefile{toc}{\contentsline {section}{\numberline {III}Equilibrium Properties}{4}{}}
\newlabel{equil_conds1}{{6}{4}{}{}{}}
\newlabel{equil_conds2}{{7}{4}{}{}{}}
\newlabel{equil_conds3}{{8}{4}{}{}{}}
\newlabel{partition_b}{{9}{4}{}{}{}}
\newlabel{partition_c}{{10}{4}{}{}{}}
\newlabel{grand_pot}{{11}{4}{}{}{}}
\newlabel{grand_pot_sol}{{12}{5}{}{}{}}
\newlabel{grand_pot_sliq}{{13}{5}{}{}{}}
\newlabel{grand_pot_new}{{14}{5}{}{}{}}
\newlabel{liq_slopes}{{15}{5}{}{}{}}
\@writefile{toc}{\contentsline {subsection}{\numberline {A}Solidus and Liquidus Concentration}{6}{}}
\@writefile{lof}{\contentsline {figure}{\numberline {1}{\ignorespaces Ternary phase diagram}}{6}{}}
\newlabel{phase_diagram}{{1}{6}{}{}{}}
\newlabel{lever_b}{{16}{6}{}{}{}}
\newlabel{lever_c}{{17}{6}{}{}{}}
\newlabel{lever_combined}{{18}{6}{}{}{}}
\citation{endnote5}
\@writefile{toc}{\contentsline {section}{\numberline {IV}Steady State Fields}{7}{}}
\@writefile{toc}{\contentsline {subsection}{\numberline {A}Solute Concentrations}{7}{}}
\newlabel{equil_c}{{19}{7}{}{}{}}
\@writefile{toc}{\contentsline {subsubsection}{\numberline {1}The $c_{b,o}(\vec  {\phi }_o({\mathbf  r}))$ Profile}{7}{}}
\newlabel{equil_cb_1}{{20}{7}{}{}{}}
\newlabel{equil_cb_2}{{21}{7}{}{}{}}
\newlabel{equil_cb_3}{{23}{8}{}{}{}}
\@writefile{toc}{\contentsline {subsubsection}{\numberline {2}The $c_{c,o}(\vec  {\phi }_o({\mathbf  r}))$ Profile}{8}{}}
\newlabel{equil_cc_3}{{24}{8}{}{}{}}
\@writefile{toc}{\contentsline {subsection}{\numberline {B}Order Parameter Profiles $\phi _i^o$}{8}{}}
\newlabel{equil_phi_1}{{24}{8}{}{}{}}
\newlabel{gbb_def}{{25}{8}{}{}{}}
\newlabel{gbc_def}{{26}{8}{}{}{}}
\newlabel{cbo_def}{{27}{9}{}{}{}}
\newlabel{cco_def}{{28}{9}{}{}{}}
\newlabel{gbpder}{{29}{9}{}{}{}}
\newlabel{equil_phi_2}{{30}{9}{}{}{}}
\@writefile{toc}{\contentsline {section}{\numberline {V}Dynamics}{9}{}}
\@writefile{toc}{\contentsline {subsection}{\numberline {A}Order Parameters}{9}{}}
\newlabel{mo\GenericError  {(inputenc)                }{Package inputenc Error: Invalid UTF-8 byte "A7}{See the inputenc package documentation for explanation.}{The document does not appear to be in UTF-8 encoding.\MessageBreak Try adding \let utf8\let \GenericError  {               }{LaTeX Error: Can be used only in preamble}{See the LaTeX manual or LaTeX Companion for explanation.}{Your command was ignored.\MessageBreak Type  I <command> <return>  to replace it with another command,\MessageBreak or  <return>  to continue without it.}\GenericInfo  {(Font)              }{LaTeX Font Info:    Redeclaring font encoding \let }\global \def \T@ \let \endcsname {\GenericError  {               }{LaTeX Error: Can be used only in preamble}{See the LaTeX manual or LaTeX Companion for explanation.}{Your command was ignored.\MessageBreak Type  I <command> <return>  to replace it with another command,\MessageBreak or  <return>  to continue without it.}}\global \def \M@ \let \endcsname {\def 7{7}}\xdef OMS{\let }\@tempcnta =1 \def \iterate {\catcode \@tempcnta =15 \advance \@tempcnta \@ne \relax \iterate }\iterate \let \iterate \relax \catcode 0=15 \catcode 9=10 \catcode 10=12 \catcode 12=13 \catcode 13=5 \@tempcnta =128 \def \iterate {\catcode \@tempcnta =12 \advance \@tempcnta \@ne \relax \iterate }\iterate \let \iterate \relax as the first line of the file\MessageBreak or specify an encoding such as \GenericError  {               }{LaTeX Error: Can be used only in preamble}{See the LaTeX manual or LaTeX Companion for explanation.}{Your command was ignored.\MessageBreak Type  I <command> <return>  to replace it with another command,\MessageBreak or  <return>  to continue without it.}[latin1]{inputenc}\MessageBreak in the document preamble.\MessageBreak Alternatively, save the file in UTF-8 using your editor or another tool}delA_phi}{{31}{9}{}{}{}}
\newlabel{driving_force1}{{32}{10}{}{}{}}
\newlabel{driving_force2}{{33}{10}{}{}{}}
\newlabel{chem_pot_def1}{{34}{10}{}{}{}}
\newlabel{chem_pot_def}{{35}{10}{}{}{}}
\newlabel{u_pot}{{36}{10}{}{}{}}
\newlabel{driving_foce2}{{37}{10}{}{}{}}
\newlabel{lambda_defs}{{38}{10}{}{}{}}
\newlabel{modelA_phi2}{{39}{10}{}{}{}}
\citation{Ber85I,Hoyt}
\newlabel{ratio}{{40}{11}{}{}{}}
\@writefile{toc}{\contentsline {subsection}{\numberline {B}Solute Fields}{11}{}}
\@writefile{toc}{\contentsline {subsubsection}{\numberline {1}Diffusion in solids}{11}{}}
\newlabel{conservation_eqs}{{41}{11}{}{}{}}
\newlabel{fluxes}{{42}{11}{}{}{}}
\newlabel{chem_pot2}{{43}{11}{}{}{}}
\citation{Ber85I}
\citation{endnote6}
\newlabel{fluxes2}{{44}{12}{}{}{}}
\newlabel{inter_chem}{{45}{12}{}{}{}}
\newlabel{fluxes3}{{46}{12}{}{}{}}
\newlabel{inter_chem2}{{47}{12}{}{}{}}
\newlabel{fick}{{48}{12}{}{}{}}
\newlabel{chem_expand}{{49}{12}{}{}{}}
\citation{Ber85II}
\citation{Sim09}
\newlabel{M-D}{{50}{13}{}{}{}}
\newlabel{inter-D}{{51}{13}{}{}{}}
\newlabel{inter-D_dilute}{{52}{13}{}{}{}}
\@writefile{toc}{\contentsline {subsubsection}{\numberline {2}Diffusion in liquids}{13}{}}
\@writefile{toc}{\contentsline {subsubsection}{\numberline {3}Concentration evolution equations}{13}{}}
\newlabel{eom_ci}{{53}{13}{}{}{}}
\newlabel{qphi}{{54}{13}{}{}{}}
\newlabel{xi}{{55}{14}{}{}{}}
\@writefile{toc}{\contentsline {section}{\numberline {VI}Thin Interface Limit of Model}{14}{}}
\@writefile{toc}{\contentsline {subsubsection}{\numberline {1}Solute anti-trapping}{14}{}}
\newlabel{anti_trap}{{56}{14}{}{}{}}
\newlabel{final_ceq}{{57}{15}{}{}{}}
\@writefile{toc}{\contentsline {subsubsection}{\numberline {2}Gibb Thomson condition}{15}{}}
\newlabel{phi_curvi}{{58}{15}{}{}{}}
\newlabel{GT1}{{59}{15}{}{}{}}
\newlabel{sig_def}{{60}{15}{}{}{}}
\newlabel{GT2}{{61}{15}{}{}{}}
\bibdata{bibliomaster.bib}
\bibcite{Hoyt}{{1}{2011}{{Hoyt}}{{}}}
\bibcite{Ber85I}{{2}{1985{}}{{Malik and Bergner}}{{}}}
\bibcite{Ber85II}{{3}{1985{}}{{Malik and Bergner}}{{}}}
\bibcite{Liu2013}{{4}{2013}{{Liu et~al.}}{{Liu, Schnell, Simon, Kruger, Bedaux, Kjelstrup, Bardow, and Vlugt}}}
\global \chardef \firstnote@num4\relax 
\bibcite{endnote5}{{5}{}{{}}{{}}}
\bibcite{endnote6}{{6}{}{{}}{{}}}
\providecommand\NAT@force@numbers{}\NAT@force@numbers
\bibstyle{apsrev}
\@writefile{toc}{\contentsline {section}{\numberline {}References}{16}{}}
\newlabel{LastBibItem}{{6}{16}{}{}{}}
\newlabel{LastPage}{{}{16}}
