\relax 
\newlabel{FirstPage}{{}{1}{}{}{}}
\gdef \tocmax@section{28.87502pt}
\gdef \tocmax@subsection{16.73738pt}
\gdef \tocmax@subsubsection{5.0pt}
\gdef \tocmax@paragraph{5.0pt}
\gdef \tocmax@appendix{5.0pt}
\gdef \tocmax@pagenum{5.0pt}
\@writefile{toc}{\tocdepth@munge}
\@writefile{toc}{\contentsline {section}{\numberline {}Contents}{2}{}}
\@writefile{toc}{\tocdepth@restore}
\@writefile{toc}{\contentsline {section}{\numberline {I}Helmholtz formulation dynamics}{2}{}}
\newlabel{grandPotFunc}{{1}{2}{}{}{}}
\newlabel{gradPotFuncVar}{{3}{3}{}{}{}}
\newlabel{evolPhi}{{4}{3}{}{}{}}
\newlabel{evolPhiFull}{{5}{3}{}{}{}}
\newlabel{evolConcFull-2}{{6}{3}{}{}{}}
\@writefile{toc}{\contentsline {section}{\numberline {II}Phase-field parameters}{4}{}}
\@writefile{toc}{\contentsline {subsection}{\numberline {A}Estimating the nucleation barrier H}{4}{}}
\@writefile{toc}{\contentsline {subsection}{\numberline {B}Sharp interface mapping}{5}{}}
\@writefile{toc}{\contentsline {subsection}{\numberline {C}Surface energy}{5}{}}
\@writefile{toc}{\contentsline {subsection}{\numberline {D}W-C-Co thermodynamic system}{6}{}}
\@writefile{toc}{\contentsline {subsection}{\numberline {E}Dimensions, non-dimensionalization}{6}{}}
\@writefile{toc}{\contentsline {section}{\numberline {III}Diffusion, mobilities and related thermodynamic data}{6}{}}
\@writefile{toc}{\contentsline {subsection}{\numberline {A}Mechanisms in solid and liquid}{6}{}}
\bibdata{bibliomaster.bib}
\global \chardef \firstnote@num0\relax 
\bibstyle{unsrt}
\@writefile{toc}{\contentsline {section}{\numberline {IV}Air phase}{7}{}}
\@writefile{toc}{\contentsline {section}{\numberline {V}Comparing helmholtz and grand potential formulations}{7}{}}
\@writefile{toc}{\contentsline {subsection}{\numberline {A}c or mu as the dynamical variable}{7}{}}
\@writefile{toc}{\contentsline {section}{\numberline {VI}Evolution with second time derivative}{7}{}}
\@writefile{toc}{\contentsline {section}{\numberline {VII}Modeling friction}{7}{}}
\@writefile{toc}{\contentsline {section}{\numberline {}References}{7}{}}
\newlabel{LastBibItem}{{0}{7}{}{}{}}
\newlabel{LastPage}{{}{7}}
