\relax 
\providecommand\hyper@newdestlabel[2]{}
\providecommand\HyperFirstAtBeginDocument{\AtBeginDocument}
\HyperFirstAtBeginDocument{\ifx\hyper@anchor\@undefined
\global\let\oldcontentsline\contentsline
\gdef\contentsline#1#2#3#4{\oldcontentsline{#1}{#2}{#3}}
\global\let\oldnewlabel\newlabel
\gdef\newlabel#1#2{\newlabelxx{#1}#2}
\gdef\newlabelxx#1#2#3#4#5#6{\oldnewlabel{#1}{{#2}{#3}}}
\AtEndDocument{\ifx\hyper@anchor\@undefined
\let\contentsline\oldcontentsline
\let\newlabel\oldnewlabel
\fi}
\fi}
\global\let\hyper@last\relax 
\gdef\HyperFirstAtBeginDocument#1{#1}
\providecommand\HyField@AuxAddToFields[1]{}
\providecommand\HyField@AuxAddToCoFields[2]{}
\newlabel{FirstPage}{{}{1}{}{Doc-Start}{}}
\citation{Ofori-Opoku10}
\@writefile{toc}{\tocdepth@munge}
\@writefile{toc}{\contentsline {section}{\numberline {}Contents}{2}{section*.1}}
\citation{Plapp11}
\gdef \tocmax@section{34.2778pt}
\gdef \tocmax@subsection{16.5721pt}
\gdef \tocmax@subsubsection{14.29156pt}
\gdef \tocmax@paragraph{5.0pt}
\gdef \tocmax@appendix{5.0pt}
\gdef \tocmax@pagenum{5.0pt}
\@writefile{toc}{\tocdepth@restore}
\@writefile{toc}{\contentsline {section}{\numberline {I}A Brief History of Phase Field Modelling}{4}{section*.2}}
\citation{Collins85}
\citation{Hoh77}
\citation{Karma98}
\citation{Lan80}
\citation{Cag91}
\citation{Provatas98,Provatas99}
\citation{War95}
\citation{Karma01,Echebarria04}
\citation{Karma01,Echebarria04}
\citation{Ramirez04}
\citation{Echebarria04}
\citation{Tong08}
\citation{Echebarria04}
\citation{Ofori-Opoku10}
\citation{Echebarria04}
\citation{Echebarria04}
\citation{Tong08}
\citation{Ofori-Opoku10}
\citation{Kha83}
\citation{Elder10,Huang10,Wu10a,Ofori-Opoku13b}
\citation{Chen94,Kazaryan00}
\citation{Fan02,Zhu04a,Zhu04b}
\citation{Tia98,Kim99b,Kim07}
\citation{Ofori-Opoku10}
\citation{Echebarria04}
\citation{Moelans11}
\citation{Shen04,Zhu04a,Zhu04b,Mol08a,Mol08b,Ofori-Opoku10}
\citation{Morin95}
\citation{Kobayashi98,Kobayashi00,Kobayashi05}
\citation{GranasyX}
\citation{Athreya07}
\citation{Jin06,Elder07,ProvatasElder10}
\citation{Majaniemi17}
\citation{Ste96,Garcke99,Nestler05,Steinbach06a,Steinbach06b,Eik06,Steinbach09}
\citation{Tia98,Kim99b,Kim07}
\citation{Kim99b,Kim07}
\citation{Tia98}
\citation{Tia98}
\citation{Kim99b}
\citation{ProvatasElder10}
\citation{Garcke99}
\citation{Folch05}
\citation{Echebarria04}
\citation{Ofori-Opoku10}
\citation{Echebarria04}
\citation{Nestler12}
\citation{Plapp11}
\citation{Lan80}
\citation{Karma98}
\citation{Tia98,Kim99b,Kim07}
\citation{Nestler12,Nestler15}
\citation{Ofori-Opoku10}
\citation{Ofori-Opoku10}
\citation{Echebarria04}
\@writefile{toc}{\contentsline {section}{\numberline {II}Overview of this Tutorial}{11}{section*.3}}
\newlabel{overview}{{II}{11}{}{section*.3}{}}
\citation{Aziz88,Aziz94}
\@writefile{toc}{\contentsline {section}{\numberline {III}Grand Potential Thermodynamics}{13}{section*.5}}
\newlabel{GP_thermo}{{III}{13}{Part 1}{section*.5}{}}
\newlabel{grandPot}{{1}{13}{Part 1}{equation.3.1}{}}
\newlabel{chemPot}{{2}{13}{Part 1}{equation.3.2}{}}
\newlabel{maxwell_relation}{{3}{13}{Part 1}{equation.3.3}{}}
\newlabel{numPart}{{4}{13}{Part 1}{equation.3.4}{}}
\citation{Ahmad98}
\citation{Ofori-Opoku10}
\newlabel{grandPotDensity}{{5}{14}{Part 1}{equation.3.5}{}}
\newlabel{grandPotDensity2}{{6}{14}{Part 1}{equation.3.6}{}}
\newlabel{chemPot_alloy}{{7}{14}{Part 1}{equation.3.7}{}}
\newlabel{numPart_alloy}{{8}{14}{Part 1}{equation.3.8}{}}
\@writefile{toc}{\contentsline {section}{\numberline {IV}Grand Potential Phase Field Functional}{15}{section*.6}}
\newlabel{grandPotFunc}{{9}{15}{Part 1}{equation.4.9}{}}
\citation{Kazaryan00,Moelans11}
\citation{Ofori-Opoku10}
\@writefile{toc}{\contentsline {subsubsection}{\numberline {1}Interaction between order parameters}{16}{section*.7}}
\newlabel{interaction}{{10}{16}{Part 1}{equation.4.10}{}}
\@writefile{toc}{\contentsline {subsubsection}{\numberline {2}Properties of the single-phase grand potential $\omega ^{\vartheta }(\boldsymbol  {\mu })$}{16}{section*.8}}
\newlabel{grandPot2}{{11}{16}{Part 1}{equation.4.11}{}}
\citation{Kim07}
\newlabel{grandPot3}{{12}{17}{Part 1}{equation.4.12}{}}
\newlabel{implicit_cs}{{13}{17}{Part 1}{equation.4.13}{}}
\@writefile{toc}{\contentsline {subsubsection}{\numberline {3}Concentration of a multi-phase system in the grand potential ensemble}{17}{section*.9}}
\newlabel{conc}{{14}{17}{Part 1}{equation.4.14}{}}
\citation{GrantNotes}
\@writefile{toc}{\contentsline {section}{\numberline {V}Phase Field Dynamics $\{\phi _\alpha ,c_i\}$ Vs. $\{\phi _\alpha ,\mu _i\}$}{18}{section*.10}}
\@writefile{toc}{\contentsline {subsection}{\numberline {A}Time Evolution in the traditional fields $\{\phi _\alpha \}$ and $\{c_i\}$}{18}{section*.11}}
\newlabel{evolPhi}{{15}{18}{Part 1}{equation.5.15}{}}
\citation{Agren92}
\citation{GrantNotes}
\newlabel{evolC}{{16}{19}{Part 1}{equation.5.16}{}}
\@writefile{toc}{\contentsline {subsection}{\numberline {B}Reformulation of phase field model dynamics in terms of $\phi _\alpha $ and $\mu _i$}{19}{section*.12}}
\newlabel{variational}{{V\tmspace  +\thinmuskip {.1667em}B}{19}{Part 1}{section*.12}{}}
\newlabel{gradPotFuncVar}{{17}{19}{Part 1}{equation.5.17}{}}
\citation{Plapp11}
\@writefile{toc}{\contentsline {subsubsection}{\numberline {1}Order parameter equaitons}{20}{section*.13}}
\newlabel{evolPhiFull}{{18}{20}{Part 1}{equation.5.18}{}}
\@writefile{toc}{\contentsline {subsubsection}{\numberline {2}Chemical potential equations}{20}{section*.14}}
\newlabel{evolConcFull-1}{{19}{20}{Part 1}{equation.5.19}{}}
\newlabel{suscep}{{20}{20}{Part 1}{equation.5.20}{}}
\newlabel{concLatent}{{21}{20}{Part 1}{equation.5.21}{}}
\newlabel{evolConcFull-2}{{22}{20}{Part 1}{equation.5.22}{}}
\citation{Wu07,Majaniemi09,Wu10a,Provatas10}
\citation{Echebarria04,Folch05,Ofori-Opoku10}
\@writefile{toc}{\contentsline {section}{\numberline {VI}Equilibrium Properties of Grand Potential Functional}{21}{section*.15}}
\newlabel{surf_eng_sect}{{VI}{21}{Part 1}{section*.15}{}}
\@writefile{toc}{\contentsline {subsubsection}{\numberline {1}Equilibrium concentration field}{21}{section*.16}}
\newlabel{conc_eq}{{23}{21}{Part 1}{equation.6.23}{}}
\citation{Echebarria04,ProvatasElder10}
\@writefile{toc}{\contentsline {subsubsection}{\numberline {2}Equilibrium solid-liquid interfaces}{22}{section*.17}}
\newlabel{eulLagSolLiq}{{24}{22}{Part 1}{equation.6.24}{}}
\@writefile{toc}{\contentsline {subsubsection}{\numberline {3}Equilibrium solid-solid interfaces}{22}{section*.18}}
\newlabel{expanded_omegas}{{25}{22}{Part 1}{equation.6.25}{}}
\newlabel{interaction_term}{{26}{22}{Part 1}{equation.6.26}{}}
\newlabel{curly}{{27}{22}{Part 1}{equation.6.27}{}}
\citation{Zhang09}
\newlabel{eulLagSolSol}{{28}{23}{Part 1}{equation.6.28}{}}
\@writefile{toc}{\contentsline {subsubsection}{\numberline {4}Classical mechanics analogy}{23}{section*.19}}
\newlabel{hamiltons_eqs}{{29}{23}{Part 1}{equation.6.29}{}}
\newlabel{eff_H}{{30}{23}{Part 1}{equation.6.30}{}}
\newlabel{eff_potential}{{31}{23}{Part 1}{equation.6.31}{}}
\citation{dantzig2009b}
\citation{Caginalp86,Cag89}
\citation{Almgren99,Karma01,Echebarria04}
\@writefile{toc}{\contentsline {section}{\numberline {VII}Quantitative Grand Potential Phase Field Simulations}{24}{section*.20}}
\newlabel{SIM}{{VII}{24}{Part 1}{section*.20}{}}
\newlabel{g_to_h_replacement}{{32}{24}{Part 1}{equation.7.32}{}}
\citation{Moelans11}
\newlabel{conc-3}{{33}{25}{Part 1}{equation.7.33}{}}
\newlabel{suscep-2}{{34}{25}{Part 1}{equation.7.34}{}}
\newlabel{anti-trap}{{35}{25}{Part 1}{equation.7.35}{}}
\newlabel{evolC-anti-trap}{{36}{25}{Part 1}{equation.7.36}{}}
\newlabel{evolConcFull-3}{{37}{25}{Part 1}{equation.7.37}{}}
\newlabel{parabolicMobility0}{{38}{25}{Part 1}{equation.7.38}{}}
\newlabel{chi_eq_def0}{{39}{25}{Part 1}{equation.7.39}{}}
\citation{Finel08}
\citation{GrantNotes}
\citation{GrantNotes,Chakin}
\newlabel{evolPhiFull_2}{{40}{26}{Part 1}{equation.7.40}{}}
\newlabel{evolConcFull-3_cleft}{{41}{26}{Part 1}{equation.7.41}{}}
\@writefile{toc}{\contentsline {section}{\numberline {VIII}Thermal Fluctuations in the Phase Field Equations}{26}{section*.21}}
\newlabel{thermal_flucs}{{VIII}{26}{Part 1}{section*.21}{}}
\newlabel{evolPhiFull_noise}{{42}{26}{Part 1}{equation.8.42}{}}
\newlabel{evolConcFull_noise}{{43}{26}{Part 1}{equation.8.43}{}}
\newlabel{FD_theorem_phi}{{44}{27}{Part 1}{equation.8.44}{}}
\newlabel{FD_theorem_c}{{45}{27}{Part 1}{equation.8.45}{}}
\@writefile{toc}{\contentsline {subsubsection}{\numberline {1}Non-dimensional form of the phase field equations}{27}{section*.22}}
\newlabel{evolPhiFull_noise_dim}{{46}{27}{Part 1}{equation.8.46}{}}
\newlabel{evolConcFull_noise_dim}{{47}{27}{Part 1}{equation.8.47}{}}
\newlabel{FD_theorem_phi_dim}{{48}{27}{Part 1}{equation.8.48}{}}
\newlabel{FD_theorem_c_dim}{{49}{27}{Part 1}{equation.8.49}{}}
\@writefile{toc}{\contentsline {subsubsection}{\numberline {2}Simplification of the noise amplitude for the order parameter equation}{27}{section*.23}}
\citation{Echebarria04}
\citation{Echebarria2010}
\newlabel{PF_tr_noises_phidim}{{50}{28}{Part 1}{equation.8.50}{}}
\newlabel{lambda_echebarria04}{{51}{28}{Part 1}{equation.8.51}{}}
\newlabel{PF_tr_noises_phidim_final}{{52}{28}{Part 1}{equation.8.52}{}}
\newlabel{Fo_def}{{53}{28}{Part 1}{equation.8.53}{}}
\@writefile{toc}{\contentsline {subsubsection}{\numberline {3}Simplification of the noise amplitude for the solute equation}{28}{section*.24}}
\newlabel{mu_expand}{{54}{28}{Part 1}{equation.8.54}{}}
\newlabel{diffusion_def}{{55}{28}{Part 1}{equation.8.55}{}}
\newlabel{FD_theorem_c_dimless}{{56}{28}{Part 1}{equation.8.56}{}}
\citation{Echebarria2010}
\newlabel{PF_tr_noises_Udim}{{57}{29}{Part 1}{equation.8.57}{}}
\@writefile{toc}{\contentsline {section}{\numberline {IX}Special Cases of the Grand Potential Phase Field Model}{29}{section*.26}}
\newlabel{special_cases}{{IX}{29}{Part 2}{section*.26}{}}
\@writefile{toc}{\contentsline {subsection}{\numberline {A}Polycrystalline Multi-Component Alloy Solidification at Low Supersaturation}{30}{section*.27}}
\newlabel{local_grand_expanded}{{58}{30}{Part 2}{equation.9.58}{}}
\newlabel{local_grand_expanded2}{{59}{30}{Part 2}{equation.9.59}{}}
\newlabel{c_field_expanded}{{60}{30}{Part 2}{equation.9.60}{}}
\newlabel{eq_con_diff}{{61}{30}{Part 2}{equation.9.61}{}}
\newlabel{chi_eq_def}{{62}{30}{Part 2}{equation.9.62}{}}
\citation{landau_statphys}
\newlabel{revised_PF_eqs}{{63}{31}{Part 2}{equation.9.63}{}}
\@writefile{toc}{\contentsline {subsubsection}{\numberline {1}Evaluating the equilibrium reference chemical potentials $\mu _i^{\rm  eq}$ }{31}{section*.28}}
\newlabel{choosing_mueq}{{IX\tmspace  +\thinmuskip {.1667em}A\tmspace  +\thinmuskip {.1667em}1}{31}{Part 2}{section*.28}{}}
\@writefile{toc}{\contentsline {subsubsection}{\numberline {2}Re-casting the differential equations in Eqs.\nobreakspace  {}(\ref  {revised_PF_eqs}) in terms of supersaturation}{32}{section*.29}}
\newlabel{keff_def}{{64}{32}{Part 2}{equation.9.64}{}}
\newlabel{chi_eqm2}{{65}{32}{Part 2}{equation.9.65}{}}
\newlabel{c_eqm2}{{66}{32}{Part 2}{equation.9.66}{}}
\newlabel{revised_phi_eqs2}{{67}{32}{Part 2}{equation.9.67}{}}
\citation{Ofori-Opoku10}
\citation{Ofori-Opoku10}
\citation{Ofori-Opoku10}
\citation{Tong08}
\newlabel{new_lambda1}{{68}{33}{Part 2}{equation.9.68}{}}
\newlabel{revised_c_eqs2}{{69}{33}{Part 2}{equation.9.69}{}}
\newlabel{U_def}{{70}{33}{Part 2}{equation.9.70}{}}
\newlabel{R_matrix_def}{{71}{33}{Part 2}{equation.9.71}{}}
\@writefile{toc}{\contentsline {subsubsection}{\numberline {3}Special limits I: A multi-component version of the model of Ofori-Opoku et al \cite  {Ofori-Opoku10}}{33}{section*.30}}
\newlabel{case1}{{IX\tmspace  +\thinmuskip {.1667em}A\tmspace  +\thinmuskip {.1667em}3}{33}{Part 2}{section*.30}{}}
\newlabel{assumptions1}{{72}{33}{Part 2}{equation.9.72}{}}
\citation{Ofori-Opoku10}
\newlabel{evolConcFull_app1}{{73}{34}{Part 2}{equation.9.73}{}}
\newlabel{q_def_app1}{{74}{34}{Part 2}{equation.9.74}{}}
\newlabel{revised_phi_eqs_app1}{{75}{34}{Part 2}{equation.9.75}{}}
\newlabel{c_expanded}{{76}{34}{Part 2}{equation.9.76}{}}
\newlabel{c_expanded2}{{77}{34}{Part 2}{equation.9.77}{}}
\newlabel{U_def2}{{78}{34}{Part 2}{equation.9.78}{}}
\newlabel{U_inverse}{{79}{34}{Part 2}{equation.9.79}{}}
\citation{Plapp11}
\citation{Plapp11}
\citation{Plapp11}
\newlabel{super_sat_app1}{{80}{35}{Part 2}{equation.9.80}{}}
\@writefile{toc}{\contentsline {subsubsection}{\numberline {4}Special limits II: recovering the binary alloy Supersaturation Limit of Plapp \cite  {Plapp11}}{35}{section*.31}}
\newlabel{SIM_sec}{{IX\tmspace  +\thinmuskip {.1667em}A\tmspace  +\thinmuskip {.1667em}4}{35}{Part 2}{section*.31}{}}
\newlabel{binaryAlloyinterpolations}{{81}{35}{Part 2}{equation.9.81}{}}
\newlabel{binarySharpEquations_in_U}{{82}{35}{Part 2}{equation.9.82}{}}
\citation{Tong08}
\newlabel{binarySharpEquations_in_c}{{83}{36}{Part 2}{equation.9.83}{}}
\newlabel{binaryAlloyParameters}{{84}{36}{Part 2}{equation.9.84}{}}
\@writefile{toc}{\contentsline {subsection}{\numberline {B}Polycrystalline Binary Alloy with Quadratic Solid/Liquid Free Energies}{36}{section*.32}}
\newlabel{binary_parabolas}{{IX\tmspace  +\thinmuskip {.1667em}B}{36}{Part 2}{section*.32}{}}
\newlabel{parabolicFreeEnergy}{{85}{36}{Part 2}{equation.9.85}{}}
\@writefile{toc}{\contentsline {subsubsection}{\numberline {1}Solid-liquid phase coexistence}{37}{section*.33}}
\newlabel{common_tangent}{{86}{37}{Part 2}{equation.9.86}{}}
\newlabel{parabolicMu}{{87}{37}{Part 2}{equation.9.87}{}}
\newlabel{phase_D}{{88}{37}{Part 2}{equation.9.88}{}}
\newlabel{meq_parabolic}{{89}{37}{Part 2}{equation.9.89}{}}
\newlabel{mu_Deff}{{90}{37}{Part 2}{equation.9.90}{}}
\newlabel{meq_parabolic2}{{91}{38}{Part 2}{equation.9.91}{}}
\@writefile{toc}{\contentsline {subsubsection}{\numberline {2}Grand potential of a phase, and multi-phase concentration and susceptibility}{38}{section*.34}}
\newlabel{parabolicOmegaPhase}{{92}{38}{Part 2}{equation.9.92}{}}
\newlabel{parabolicAuxiliaryField}{{93}{38}{Part 2}{equation.9.93}{}}
\newlabel{parabolicOmega}{{94}{38}{Part 2}{equation.9.94}{}}
\newlabel{parabolic_eq_conc}{{95}{38}{Part 2}{equation.9.95}{}}
\newlabel{parabolicSusceptibility}{{96}{38}{Part 2}{equation.9.96}{}}
\citation{Plapp11}
\@writefile{toc}{\contentsline {subsubsection}{\numberline {3}Casting the phase field equations in "supersaturation form"}{39}{section*.35}}
\newlabel{DC_Def}{{97}{39}{Part 2}{equation.9.97}{}}
\newlabel{DC_Def2}{{98}{39}{Part 2}{equation.9.98}{}}
\newlabel{parabolicEvolMu}{{99}{39}{Part 2}{equation.9.99}{}}
\newlabel{U_alpha_Def}{{100}{39}{Part 2}{equation.9.100}{}}
\newlabel{parabolicMobility00}{{101}{39}{Part 2}{equation.9.101}{}}
\newlabel{DB_Def}{{102}{39}{Part 2}{equation.9.102}{}}
\newlabel{parabolicEvolPhi}{{103}{39}{Part 2}{equation.9.103}{}}
\newlabel{new_lambda}{{104}{39}{Part 2}{equation.9.104}{}}
\citation{Bra02}
\citation{Moelans11b}
\@writefile{toc}{\contentsline {subsection}{\numberline {C}Multi-Phase, Multi-Component Alloys with Quadratic Free Energies }{40}{section*.36}}
\newlabel{case2_3D_parabolas}{{IX\tmspace  +\thinmuskip {.1667em}C}{40}{Part 2}{section*.36}{}}
\citation{Moelans11,Moelans11b}
\@writefile{toc}{\contentsline {subsubsection}{\numberline {1}Free energy and susceptibility of a single phase}{41}{section*.37}}
\newlabel{multi_parabolic_free}{{105}{41}{Part 2}{equation.9.105}{}}
\newlabel{multi_parabolic_chempot}{{106}{41}{Part 2}{equation.9.106}{}}
\newlabel{multi_parabolic_susceptibility_inverse}{{107}{41}{Part 2}{equation.9.107}{}}
\newlabel{multi_parabolic_susceptibility}{{108}{41}{Part 2}{equation.9.108}{}}
\newlabel{chi_matrix_def}{{109}{41}{Part 2}{equation.9.109}{}}
\@writefile{toc}{\contentsline {subsubsection}{\numberline {2}Vector notation and transformations between concentrations and chemical potentials}{41}{section*.38}}
\newlabel{ref_chem_pot}{{110}{41}{Part 2}{equation.9.110}{}}
\newlabel{vec_tranpose}{{111}{42}{Part 2}{equation.9.111}{}}
\newlabel{vector_defs}{{116}{42}{Part 2}{equation.9.116}{}}
\newlabel{quadratic_free_form}{{117}{42}{Part 2}{equation.9.117}{}}
\newlabel{chem_to_c}{{118}{42}{Part 2}{equation.9.118}{}}
\newlabel{c_to_chem}{{119}{42}{Part 2}{equation.9.119}{}}
\@writefile{toc}{\contentsline {subsubsection}{\numberline {3}Grand potential and concentration of a single phase}{42}{section*.39}}
\newlabel{grand_theta1}{{120}{42}{Part 2}{equation.9.120}{}}
\newlabel{grand_theta2}{{121}{43}{Part 2}{equation.9.121}{}}
\newlabel{scalar_invariance}{{122}{43}{Part 2}{equation.9.122}{}}
\newlabel{phase_conc}{{123}{43}{Part 2}{equation.9.123}{}}
\newlabel{c_min}{{124}{43}{Part 2}{equation.9.124}{}}
\newlabel{phase_conc_alternate}{{125}{43}{Part 2}{equation.9.125}{}}
\@writefile{toc}{\contentsline {subsubsection}{\numberline {4}Multi-phase concentration, susceptibility and concentration difference}{43}{section*.40}}
\newlabel{multi_phase_conc1}{{126}{43}{Part 2}{equation.9.126}{}}
\newlabel{deltaCalpha}{{127}{43}{Part 2}{equation.9.127}{}}
\newlabel{multi_phase_conc2}{{128}{43}{Part 2}{equation.9.128}{}}
\newlabel{keffa}{{129}{44}{Part 2}{equation.9.129}{}}
\newlabel{multi_phase_conc3}{{130}{44}{Part 2}{equation.9.130}{}}
\newlabel{multi_phase_susep}{{131}{44}{Part 2}{equation.9.131}{}}
\newlabel{conc_diff}{{132}{44}{Part 2}{equation.9.132}{}}
\newlabel{eq_conc}{{133}{44}{Part 2}{equation.9.133}{}}
\newlabel{DC_def_alternate}{{134}{44}{Part 2}{equation.9.134}{}}
\newlabel{DC_eq_def}{{135}{45}{Part 2}{equation.9.135}{}}
\newlabel{conc_diff_alternate}{{136}{45}{Part 2}{equation.9.136}{}}
\@writefile{toc}{\contentsline {subsubsection}{\numberline {5}Grand potential driving force for multi-phase solidification}{45}{section*.41}}
\newlabel{grand_diff_1}{{137}{45}{Part 2}{equation.9.137}{}}
\newlabel{cbar_diff}{{138}{45}{Part 2}{equation.9.138}{}}
\newlabel{D_diff_1}{{139}{45}{Part 2}{equation.9.139}{}}
\newlabel{DC_DD_combo}{{140}{45}{Part 2}{equation.9.140}{}}
\newlabel{Final_driving_force}{{141}{46}{Part 2}{equation.9.141}{}}
\@writefile{toc}{\contentsline {subsubsection}{\numberline {6}Casting the driving force in term of supersaturations}{46}{section*.42}}
\newlabel{Ualpha}{{142}{46}{Part 2}{equation.9.142}{}}
\newlabel{normal}{{143}{46}{Part 2}{equation.9.143}{}}
\newlabel{PhiField_driving_force}{{144}{46}{Part 2}{equation.9.144}{}}
\@writefile{toc}{\contentsline {subsubsection}{\numberline {7}Final form of phase field equations in terms of supersaturation driving forces}{46}{section*.43}}
\newlabel{final_eoms}{{IX\tmspace  +\thinmuskip {.1667em}C\tmspace  +\thinmuskip {.1667em}7}{46}{Part 2}{section*.43}{}}
\newlabel{vectorEvolPhi}{{145}{46}{Part 2}{equation.9.145}{}}
\newlabel{vectorEvolMu}{{146}{47}{Part 2}{equation.9.146}{}}
\newlabel{Ualpha_sum}{{147}{47}{Part 2}{equation.9.147}{}}
\newlabel{normal_sum}{{148}{47}{Part 2}{equation.9.148}{}}
\newlabel{kefa_sum}{{149}{47}{Part 2}{equation.9.149}{}}
\newlabel{lambda_sum}{{150}{47}{Part 2}{equation.9.150}{}}
\newlabel{ceq_sum}{{151}{47}{Part 2}{equation.9.151}{}}
\newlabel{multi_phase_susep_sum}{{152}{47}{Part 2}{equation.9.152}{}}
\citation{Plapp11}
\@writefile{toc}{\contentsline {section}{\numberline {X}Asymptotics in the Grand Potential Phase Field Model}{48}{section*.45}}
\newlabel{asymptotics_discussion}{{X}{48}{Part 3}{section*.45}{}}
\citation{Cag89}
\citation{Almgren99,Karma01,Echebarria04}
\@writefile{toc}{\contentsline {subsection}{\numberline {A}What is ``asymptotic analysis" of a phase field model about? }{49}{section*.46}}
\citation{Bro83,Ben83,Ben84,Kes84,Kes89,Bre91,Pom91}
\@writefile{toc}{\contentsline {subsection}{\numberline {B}Interpreting the role of $\lambda $ as a convergence parameter in solidification }{50}{section*.47}}
\newlabel{pure_PF}{{154}{50}{Part 3}{equation.10.154}{}}
\newlabel{time_length_scales}{{155}{50}{Part 3}{equation.10.155}{}}
\newlabel{pure_PF_co_mat}{{156}{50}{Part 3}{equation.10.156}{}}
\citation{Karma98,Echebarria04,ProvatasElder10}
\newlabel{pure_PF_co_scaled}{{157}{51}{Part 3}{equation.10.157}{}}
\newlabel{Vc_full}{{158}{51}{Part 3}{equation.10.158}{}}
\@writefile{toc}{\contentsline {subsection}{\numberline {C}Interpreting the dual role of $\lambda $ in asymptotics and in the noise amplitide}{51}{section*.48}}
\citation{Aziz88,Aziz94}
\citation{sob95,sob97}
\citation{Ahmad98}
\citation{Wheeler93}
\citation{Boettinger94}
\@writefile{toc}{\contentsline {section}{\numberline {XI}Continuous Growth Kinetics in the Diffuse Interface Limit of the Grand Potential Phase Field Equations}{53}{section*.50}}
\newlabel{CGM_section}{{XI}{53}{Part 4}{section*.50}{}}
\citation{Echebarria04,Plapp11}
\citation{Aziz94}
\@writefile{toc}{\contentsline {subsection}{\numberline {A}Review of the Continuous Growth Model of Rapid Solidification}{54}{section*.51}}
\newlabel{cgmodel}{{XI\tmspace  +\thinmuskip {.1667em}A}{54}{Part 4}{section*.51}{}}
\citation{Turnbull62,Aziz88,Boettinger94}
\citation{Turnbull62}
\citation{Aziz94}
\citation{Cahn62}
\citation{Cahn71}
\citation{Cahn71}
\citation{Cahn62,Aziz88,Aziz94,Ahmad98}
\citation{Ahmad98}
\newlabel{CGM_Aziz_Boettinger94}{{159}{55}{Part 4}{equation.11.159}{}}
\newlabel{eff_energy_def}{{160}{55}{Part 4}{equation.11.160}{}}
\newlabel{DeltaG_sol}{{161}{55}{Part 4}{equation.11.161}{}}
\newlabel{DeltaG_drag}{{162}{55}{Part 4}{equation.11.162}{}}
\citation{Boettinger94}
\newlabel{DeltaG_eff}{{163}{56}{Part 4}{equation.11.163}{}}
\newlabel{CGM6}{{164}{56}{Part 4}{equation.11.164}{}}
\@writefile{toc}{\contentsline {subsubsection}{\numberline {1}Kinetic undercooling of the interface in Henrian solutions}{56}{section*.52}}
\newlabel{cgmodela}{{XI\tmspace  +\thinmuskip {.1667em}A\tmspace  +\thinmuskip {.1667em}1}{56}{Part 4}{section*.52}{}}
\newlabel{dilute_free}{{165}{56}{Part 4}{equation.11.165}{}}
\newlabel{DGeff2}{{166}{56}{Part 4}{equation.11.166}{}}
\newlabel{entropy_change}{{167}{56}{Part 4}{equation.11.167}{}}
\newlabel{energy_change}{{168}{56}{Part 4}{equation.11.168}{}}
\citation{Aziz94}
\citation{Aziz94}
\citation{Galenko2002}
\newlabel{DGeff5}{{169}{57}{Part 4}{equation.11.169}{}}
\newlabel{kinetic_k}{{170}{57}{Part 4}{equation.11.170}{}}
\newlabel{CGM7}{{171}{57}{Part 4}{equation.11.171}{}}
\newlabel{CGM8}{{172}{57}{Part 4}{equation.11.172}{}}
\@writefile{toc}{\contentsline {subsection}{\numberline {B}Continuous Growth Model Limit of the Grand potential Phase Field Model}{57}{section*.53}}
\newlabel{sol_phi_1b_text}{{173}{58}{Part 4}{equation.11.173}{}}
\newlabel{sol4_phi_3_text}{{174}{58}{Part 4}{equation.11.174}{}}
\newlabel{CGM1}{{175}{58}{Part 4}{equation.11.175}{}}
\newlabel{CGM2}{{176}{59}{Part 4}{equation.11.176}{}}
\newlabel{CGM3}{{177}{59}{Part 4}{equation.11.177}{}}
\newlabel{CGM4}{{178}{59}{Part 4}{equation.11.178}{}}
\@writefile{toc}{\contentsline {subsubsection}{\numberline {1}Specializing Eq.\nobreakspace  {}(\ref  {CGM4}) into the CGM model of Eq.\nobreakspace  {}(\ref  {CGM6}): full drag case}{59}{section*.54}}
\newlabel{solid_mu_aprrox}{{179}{59}{Part 4}{equation.11.179}{}}
\citation{Aziz94}
\newlabel{CGM5}{{180}{60}{Part 4}{equation.11.180}{}}
\newlabel{first_beta}{{181}{60}{Part 4}{equation.11.181}{}}
\@writefile{toc}{\contentsline {subsubsection}{\numberline {2}Specializing Eq.\nobreakspace  {}(\ref  {CGM4}) into the CGM model with zero drag}{60}{section*.55}}
\newlabel{liquid_mu_aprrox}{{182}{60}{Part 4}{equation.11.182}{}}
\newlabel{CGM5B}{{183}{60}{Part 4}{equation.11.183}{}}
\newlabel{first_betaB}{{184}{60}{Part 4}{equation.11.184}{}}
\citation{Echebarria04}
\@writefile{toc}{\contentsline {subsubsection}{\numberline {3}Relating $1/v_c^{\rm  PF}$ to interface kinetic coefficient $\beta $ for the case of ideal binary alloys }{61}{section*.56}}
\newlabel{mobility_exp}{{185}{61}{Part 4}{equation.11.185}{}}
\newlabel{mobility_exp2}{{186}{61}{Part 4}{equation.11.186}{}}
\newlabel{first_beta2}{{187}{61}{Part 4}{equation.11.187}{}}
\newlabel{lambda_III}{{188}{61}{Part 4}{equation.11.188}{}}
\@writefile{toc}{\contentsline {subsection}{\numberline {C}Non-equilibrium partition coefficient $k(v_0)$}{62}{section*.57}}
\@writefile{toc}{\contentsline {subsubsection}{\numberline {1}Chemical potential jump at the interface}{62}{section*.58}}
\newlabel{chem_jump}{{189}{62}{Part 4}{equation.11.189}{}}
\newlabel{F_defs_expanded}{{190}{62}{Part 4}{equation.11.190}{}}
\newlabel{c_ss}{{191}{62}{Part 4}{equation.11.191}{}}
\newlabel{suscep_CGM}{{192}{62}{Part 4}{equation.11.192}{}}
\newlabel{qtild_CGM}{{193}{62}{Part 4}{equation.11.193}{}}
\newlabel{F_defs_cgm1}{{194}{63}{Part 4}{equation.11.194}{}}
\newlabel{K_def_cgm2}{{195}{63}{Part 4}{equation.11.195}{}}
\newlabel{F_defs_cgmII}{{196}{63}{Part 4}{equation.11.196}{}}
\newlabel{F_defs_text}{{197}{63}{Part 4}{equation.11.197}{}}
\@writefile{toc}{\contentsline {subsubsection}{\numberline {2}Evaluating $\Delta \mathaccentV {bar}016{F}$ and an equation for $k(v_o)$ from Eq.\nobreakspace  {}(\ref  {chem_jump})}{64}{section*.59}}
\newlabel{new_at}{{198}{64}{Part 4}{equation.11.198}{}}
\newlabel{trapping_DF}{{199}{64}{Part 4}{equation.11.199}{}}
\newlabel{expanded_Fm}{{200}{64}{Part 4}{equation.11.199}{}}
\newlabel{expanded_K}{{201}{64}{Part 4}{equation.11.199}{}}
\newlabel{trapping_DF_other}{{202}{64}{Part 4}{equation.11.202}{}}
\newlabel{expanded_Fm_other}{{203}{64}{Part 4}{equation.11.202}{}}
\newlabel{expanded_K_other}{{204}{64}{Part 4}{equation.11.202}{}}
\newlabel{kv_func}{{205}{64}{Part 4}{equation.11.205}{}}
\newlabel{V_D}{{206}{64}{Part 4}{equation.11.206}{}}
\@writefile{toc}{\contentsline {subsubsection}{\numberline {3}Evaluating $k(v_o)$ for ideal binary alloys}{65}{section*.60}}
\newlabel{another_lambda}{{207}{65}{Part 4}{equation.11.207}{}}
\newlabel{V_D2}{{208}{65}{Part 4}{equation.11.208}{}}
\newlabel{kv_func2}{{209}{65}{Part 4}{equation.11.209}{}}
\newlabel{vc_reexpressed}{{210}{65}{Part 4}{equation.11.210}{}}
\newlabel{lambda_XX}{{211}{65}{Part 4}{equation.11.211}{}}
\newlabel{fin_K_F}{{212}{65}{Part 4}{equation.11.212}{}}
\@writefile{lof}{\contentsline {figure}{\numberline {1}{\ignorespaces $k(v_o)$ Vs. $v_o$ for the same of $|A|=0.2$.}}{66}{figure.1}}
\newlabel{KV_fig}{{1}{66}{$k(v_o)$ Vs. $v_o$ for the same of $|A|=0.2$}{figure.1}{}}
\@writefile{toc}{\appendix }
\@writefile{toc}{\contentsline {section}{\numberline {A}Incorporating Temperature in the Grand Potential Phase Field Model }{66}{section*.62}}
\newlabel{app_temp}{{A}{66}{Part 5}{section*.62}{}}
\newlabel{gradPotFuncTemp}{{A1}{66}{Part 5}{equation.A.1}{}}
\newlabel{evolT}{{A2}{67}{Part 5}{equation.A.2}{}}
\newlabel{gradPotFuncTempVar}{{A4}{67}{Part 5}{equation.A.4}{}}
\newlabel{entropyFunc}{{A5}{67}{Part 5}{equation.A.5}{}}
\newlabel{entropyFunc}{{A6}{67}{Part 5}{equation.A.6}{}}
\newlabel{evolT}{{A7}{67}{Part 5}{equation.A.7}{}}
\citation{Almgren99}
\citation{Ramirez04}
\newlabel{specificHeat}{{A8}{68}{Part 5}{equation.A.8}{}}
\newlabel{entropyMu}{{A9}{68}{Part 5}{equation.A.9}{}}
\newlabel{entropyPhi}{{A10}{68}{Part 5}{equation.A.10}{}}
\newlabel{evolTFull}{{A11}{68}{Part 5}{equation.A.11}{}}
\newlabel{evolPhiTempFull}{{A12}{68}{Part 5}{equation.A.12}{}}
\citation{ProvatasElder10}
\citation{Aziz88,Aziz94}
\citation{Echebarria04}
\newlabel{evolConcTempFull}{{A13}{69}{Part 5}{equation.A.13}{}}
\@writefile{toc}{\contentsline {section}{\numberline {B}Asymptotic Analysis of the Grand Potential Phase Field Equations}{69}{section*.63}}
\newlabel{alloy_asymptotics}{{B}{69}{Part 5}{section*.63}{}}
\@writefile{toc}{\contentsline {subsection}{\numberline {1}Length and Time Scales}{69}{section*.64}}
\newlabel{scales}{{B1}{70}{Part 5}{equation.B.1}{}}
\newlabel{cap_length_def1}{{B2}{70}{Part 5}{equation.B.2}{}}
\@writefile{toc}{\contentsline {subsection}{\numberline {2}Phase Field Equations written in perturbation variables}{70}{section*.65}}
\newlabel{app_phi}{{B3}{70}{Part 5}{equation.B.3}{}}
\newlabel{app_mu}{{B4}{70}{Part 5}{equation.B.4}{}}
\newlabel{app_mobility}{{B5}{70}{Part 5}{equation.B.5}{}}
\@writefile{toc}{\contentsline {subsubsection}{\numberline {a}Convenient notation and definitions}{71}{section*.66}}
\newlabel{app_omega}{{B6}{71}{Part 5}{equation.B.6}{}}
\newlabel{tdc}{{B7}{71}{Part 5}{equation.B.7}{}}
\newlabel{tdc}{{B8}{71}{Part 5}{equation.B.8}{}}
\newlabel{app_c}{{B9}{71}{Part 5}{equation.B.9}{}}
\@writefile{toc}{\contentsline {subsection}{\numberline {3}Field Expansions and Matching Conditions of Outer/Inner Solutions}{71}{section*.67}}
\newlabel{outer_series}{{B10}{71}{Part 5}{equation.B.10}{}}
\citation{Almgren99}
\citation{Almgren99}
\newlabel{inner_series}{{B11}{72}{Part 5}{equation.B.11}{}}
\newlabel{mu_field_matching}{{B12}{72}{Part 5}{equation.B.12}{}}
\newlabel{phi_field_matching}{{B13}{72}{Part 5}{equation.B.13}{}}
\@writefile{toc}{\contentsline {subsection}{\numberline {4}Outer Equations Satisfied by Phase Field Equations}{73}{section*.68}}
\newlabel{outer_solutions}{{B\tmspace  +\thinmuskip {.1667em}4}{73}{Part 5}{section*.68}{}}
\newlabel{phase_eq_outer}{{B14}{73}{Part 5}{equation.B.14}{}}
\newlabel{chem_eq_outer}{{B15}{73}{Part 5}{equation.B.14}{}}
\newlabel{order_0_out}{{B16}{73}{Part 5}{equation.B.16}{}}
\newlabel{order_1_out}{{B17}{73}{Part 5}{equation.B.16}{}}
\newlabel{order_2_out}{{B18}{73}{Part 5}{equation.B.16}{}}
\newlabel{outer_expanded_eqs}{{B19}{73}{Part 5}{equation.B.19}{}}
\newlabel{outer_expanded_c}{{B20}{73}{Part 5}{equation.B.20}{}}
\@writefile{toc}{\contentsline {subsection}{\numberline {5}Inner Equations Satisfied by the phase field equations }{73}{section*.69}}
\newlabel{inner_phi_sect_app}{{B\tmspace  +\thinmuskip {.1667em}5}{73}{Part 5}{section*.69}{}}
\citation{ProvatasElder10}
\citation{ProvatasElder10}
\@writefile{lof}{\contentsline {figure}{\numberline {2}{\ignorespaces Schematic of the $(u,s)$ co-ordinates in an orthogonal co-ordinate system anchored onto the interface. The co-ordinate $u$ measures distances normal from the interface while $s$ measure the arclength long the interface. The vector $\mathaccentV {vec}17E{v}$ is the velocity of the interface at the point indicated by the dot, which is situated at co-ordinates $(0,s)$.}}{74}{figure.2}}
\newlabel{us_co-ords}{{2}{74}{Schematic of the $(u,s)$ co-ordinates in an orthogonal co-ordinate system anchored onto the interface. The co-ordinate $u$ measures distances normal from the interface while $s$ measure the arclength long the interface. The vector $\vec {v}$ is the velocity of the interface at the point indicated by the dot, which is situated at co-ordinates $(0,s)$}{figure.2}{}}
\@writefile{toc}{\contentsline {subsubsection}{\numberline {a}Phase field equation}{75}{section*.70}}
\newlabel{phi_in_0}{{B21}{75}{Part 5}{equation.B.21}{}}
\newlabel{phi_in_1}{{B22}{75}{Part 5}{equation.B.21}{}}
\newlabel{phi_in_2}{{B23}{75}{Part 5}{equation.B.21}{}}
\@writefile{toc}{\contentsline {subsubsection}{\numberline {b}Chemical potential equation}{75}{section*.71}}
\newlabel{c_in_0}{{B24}{75}{Part 5}{equation.B.24}{}}
\newlabel{c_in_1}{{B25}{75}{Part 5}{equation.B.24}{}}
\newlabel{c_in_2}{{B26}{75}{Part 5}{equation.B.24}{}}
\newlabel{c_in_2}{{B26}{75}{Part 5}{equation.B.24}{}}
\citation{ProvatasElder10}
\@writefile{toc}{\contentsline {subsubsection}{\numberline {c}Constitutive relation between $c$ and $\mu $}{76}{section*.72}}
\newlabel{c_mu_0}{{B27}{76}{Part 5}{equation.B.27}{}}
\newlabel{c_mu_1}{{B28}{76}{Part 5}{equation.B.27}{}}
\@writefile{toc}{\contentsline {subsection}{\numberline {6}Analysis of Inner Equations and Matching to Their Outer Fields }{76}{section*.73}}
\newlabel{inner_outer_match_math}{{B\tmspace  +\thinmuskip {.1667em}6}{76}{Part 5}{section*.73}{}}
\@writefile{toc}{\contentsline {subsubsection}{\numberline {a}$\mathcal  {O}(1)$ phase field equation Eq.\nobreakspace  {}(\ref  {phi_in_0})}{76}{section*.74}}
\newlabel{sect_phi_in_0}{{B\tmspace  +\thinmuskip {.1667em}6\tmspace  +\thinmuskip {.1667em}a}{76}{Part 5}{section*.74}{}}
\newlabel{sol4_phi_0}{{B29}{76}{Part 5}{equation.B.29}{}}
\@writefile{toc}{\contentsline {subsubsection}{\numberline {b}$\mathcal  {O}(1)$ diffusion equation\nobreakspace  {}(\ref  {c_in_0})}{76}{section*.75}}
\newlabel{sect_c_in_0}{{B\tmspace  +\thinmuskip {.1667em}6\tmspace  +\thinmuskip {.1667em}b}{76}{Part 5}{section*.75}{}}
\newlabel{sol_c_0}{{B30}{76}{Part 5}{equation.B.30}{}}
\newlabel{sol2_c_0}{{B31}{77}{Part 5}{equation.B.31}{}}
\newlabel{sol3_c_0}{{B32}{77}{Part 5}{equation.B.32}{}}
\newlabel{low_ord_mu1}{{B33}{77}{Part 5}{equation.B.33}{}}
\newlabel{ct1}{{B34}{77}{Part 5}{equation.B.34}{}}
\newlabel{ct2}{{B35}{77}{Part 5}{equation.B.34}{}}
\newlabel{cs_def2}{{B36}{77}{Part 5}{equation.B.36}{}}
\citation{ProvatasElder10}
\@writefile{toc}{\contentsline {subsubsection}{\numberline {c}$\mathcal  {O}(\epsilon )$ phase field equation\nobreakspace  {}(\ref  {phi_in_1})}{78}{section*.76}}
\newlabel{sect_phi_in_1}{{B\tmspace  +\thinmuskip {.1667em}6\tmspace  +\thinmuskip {.1667em}c}{78}{Part 5}{section*.76}{}}
\newlabel{sol_phi_1}{{B37}{78}{Part 5}{equation.B.37}{}}
\newlabel{sigma_phi}{{B38}{78}{Part 5}{equation.B.38}{}}
\newlabel{P_norm}{{B39}{78}{Part 5}{equation.B.39}{}}
\newlabel{sol_phi_1b}{{B40}{78}{Part 5}{equation.B.40}{}}
\newlabel{omega_expanded1}{{B41}{78}{Part 5}{equation.B.41}{}}
\newlabel{derivative_omega_expanded}{{B42}{78}{Part 5}{equation.B.42}{}}
\newlabel{derivative_omega_expanded_eq}{{B43}{78}{Part 5}{equation.B.43}{}}
\newlabel{sol2_phi_1}{{B44}{78}{Part 5}{equation.B.44}{}}
\citation{ProvatasElder10}
\newlabel{sol3_phi_1}{{B45}{79}{Part 5}{equation.B.45}{}}
\@writefile{toc}{\contentsline {subsubsection}{\numberline {d}$\mathcal  {O}(\epsilon )$ diffusion equation\nobreakspace  {}(\ref  {c_in_1})}{79}{section*.77}}
\newlabel{sect_c_in_1}{{B\tmspace  +\thinmuskip {.1667em}6\tmspace  +\thinmuskip {.1667em}d}{79}{Part 5}{section*.77}{}}
\newlabel{c_in_1_int}{{B46}{79}{Part 5}{equation.B.46}{}}
\newlabel{A_boundary_cond}{{B47}{79}{Part 5}{equation.B.47}{}}
\newlabel{sol1_c_1}{{B48}{79}{Part 5}{equation.B.48}{}}
\newlabel{cib_def}{{B49}{79}{Part 5}{equation.B.49}{}}
\newlabel{sol1_c_1_neg}{{B50}{80}{Part 5}{equation.B.50}{}}
\newlabel{sol1_c_1_pos}{{B51}{80}{Part 5}{equation.B.50}{}}
\newlabel{sol1_c_1_neg_lim}{{B52}{80}{Part 5}{equation.B.52}{}}
\newlabel{sol1_c_1_pos_lim}{{B53}{80}{Part 5}{equation.B.52}{}}
\newlabel{mu1_match1}{{B54}{80}{Part 5}{equation.B.54}{}}
\newlabel{mu1_match2}{{B55}{80}{Part 5}{equation.B.54}{}}
\newlabel{F_defs}{{B56}{80}{Part 5}{equation.B.56}{}}
\newlabel{mu_mismatch}{{B57}{80}{Part 5}{equation.B.57}{}}
\newlabel{mu_mismatch2}{{B58}{80}{Part 5}{equation.B.58}{}}
\newlabel{ord1_flux_consv}{{B59}{81}{Part 5}{equation.B.59}{}}
\newlabel{ord1_flux_consv2}{{B60}{81}{Part 5}{equation.B.60}{}}
\@writefile{toc}{\contentsline {subsubsection}{\numberline {e}$\mathcal  {O}(\epsilon ^2)$ phase field equation\nobreakspace  {}(\ref  {phi_in_2})}{81}{section*.78}}
\newlabel{sect_phi_in_2}{{B\tmspace  +\thinmuskip {.1667em}6\tmspace  +\thinmuskip {.1667em}e}{81}{Part 5}{section*.78}{}}
\newlabel{sol_phi_2}{{B61}{81}{Part 5}{equation.B.61}{}}
\newlabel{phi_symm1}{{B62}{81}{Part 5}{equation.B.62}{}}
\citation{Echebarria04}
\newlabel{sol2_phi_2}{{B63}{82}{Part 5}{equation.B.63}{}}
\newlabel{sol4_phi_2}{{B64}{82}{Part 5}{equation.B.64}{}}
\newlabel{KK_def}{{B65}{82}{Part 5}{equation.B.65}{}}
\newlabel{sol5_phi_2}{{B66}{82}{Part 5}{equation.B.66}{}}
\newlabel{sol6_phi_2}{{B67}{82}{Part 5}{equation.B.67}{}}
\newlabel{sol7_phi_2}{{B68}{82}{Part 5}{equation.B.68}{}}
\citation{ProvatasElder10}
\@writefile{toc}{\contentsline {subsubsection}{\numberline {f}$\mathcal  {O}(\epsilon ^2)$ diffusion equation\nobreakspace  {}(\ref  {c_in_2})}{83}{section*.79}}
\newlabel{O2_c_sect}{{B\tmspace  +\thinmuskip {.1667em}6\tmspace  +\thinmuskip {.1667em}f}{83}{Part 5}{section*.79}{}}
\newlabel{sol_c_2}{{B69}{83}{Part 5}{equation.B.69}{}}
\newlabel{sol3_c_2}{{B70}{83}{Part 5}{equation.B.70}{}}
\newlabel{sol4_c_2}{{B71}{84}{Part 5}{equation.B.71}{}}
\newlabel{simplifications1}{{B72}{84}{Part 5}{equation.B.72}{}}
\newlabel{simplifications2}{{B73}{84}{Part 5}{equation.B.73}{}}
\newlabel{simplifications3}{{B74}{84}{Part 5}{equation.B.74}{}}
\newlabel{finad_diff1}{{B75}{84}{Part 5}{equation.B.75}{}}
\citation{Almgren99}
\citation{Echebarria04}
\newlabel{Hpm}{{B76}{85}{Part 5}{equation.B.76}{}}
\newlabel{Jpm}{{B77}{85}{Part 5}{equation.B.76}{}}
\newlabel{constitutive2}{{B78}{85}{Part 5}{equation.B.78}{}}
\newlabel{q_der_simp}{{B79}{85}{Part 5}{equation.B.79}{}}
\newlabel{transform4}{{B80}{85}{Part 5}{equation.B.80}{}}
\newlabel{finad_diff2}{{B81}{85}{Part 5}{equation.B.81}{}}
\bibdata{bibliomaster.bib}
\bibcite{Ofori-Opoku10}{{1}{}{{}}{{}}}
\bibcite{Plapp11}{{2}{}{{}}{{}}}
\bibcite{Collins85}{{3}{}{{}}{{}}}
\bibcite{Hoh77}{{4}{}{{}}{{}}}
\bibcite{Karma98}{{5}{}{{}}{{}}}
\bibcite{Lan80}{{6}{}{{}}{{}}}
\bibcite{Cag91}{{7}{}{{}}{{}}}
\bibcite{Provatas98}{{8}{}{{}}{{}}}
\bibcite{Provatas99}{{9}{}{{}}{{}}}
\bibcite{War95}{{10}{}{{}}{{}}}
\bibcite{Karma01}{{11}{}{{}}{{}}}
\bibcite{Echebarria04}{{12}{}{{}}{{}}}
\bibcite{Ramirez04}{{13}{}{{}}{{}}}
\bibcite{Tong08}{{14}{}{{}}{{}}}
\bibcite{Kha83}{{15}{}{{}}{{}}}
\@writefile{toc}{\contentsline {section}{\numberline {}References}{86}{section*.80}}
\bibcite{Elder10}{{16}{}{{}}{{}}}
\bibcite{Huang10}{{17}{}{{}}{{}}}
\bibcite{Wu10a}{{18}{}{{}}{{}}}
\bibcite{Ofori-Opoku13b}{{19}{}{{}}{{}}}
\bibcite{Chen94}{{20}{}{{}}{{}}}
\bibcite{Kazaryan00}{{21}{}{{}}{{}}}
\bibcite{Fan02}{{22}{}{{}}{{}}}
\bibcite{Zhu04a}{{23}{}{{}}{{}}}
\bibcite{Zhu04b}{{24}{}{{}}{{}}}
\bibcite{Tia98}{{25}{}{{}}{{}}}
\bibcite{Kim99b}{{26}{}{{}}{{}}}
\bibcite{Kim07}{{27}{}{{}}{{}}}
\bibcite{Moelans11}{{28}{}{{}}{{}}}
\bibcite{Shen04}{{29}{}{{}}{{}}}
\bibcite{Mol08a}{{30}{}{{}}{{}}}
\bibcite{Mol08b}{{31}{}{{}}{{}}}
\bibcite{Morin95}{{32}{}{{}}{{}}}
\bibcite{Kobayashi98}{{33}{}{{}}{{}}}
\bibcite{Kobayashi00}{{34}{}{{}}{{}}}
\bibcite{Kobayashi05}{{35}{}{{}}{{}}}
\bibcite{Athreya07}{{36}{}{{}}{{}}}
\bibcite{Jin06}{{37}{}{{}}{{}}}
\bibcite{Elder07}{{38}{}{{}}{{}}}
\bibcite{ProvatasElder10}{{39}{}{{}}{{}}}
\bibcite{Majaniemi17}{{40}{}{{}}{{}}}
\bibcite{Ste96}{{41}{}{{}}{{}}}
\bibcite{Garcke99}{{42}{}{{}}{{}}}
\bibcite{Nestler05}{{43}{}{{}}{{}}}
\bibcite{Steinbach06a}{{44}{}{{}}{{}}}
\bibcite{Steinbach06b}{{45}{}{{}}{{}}}
\bibcite{Eik06}{{46}{}{{}}{{}}}
\bibcite{Steinbach09}{{47}{}{{}}{{}}}
\bibcite{Folch05}{{48}{}{{}}{{}}}
\bibcite{Nestler12}{{49}{}{{}}{{}}}
\bibcite{Nestler15}{{50}{}{{}}{{}}}
\bibcite{Aziz88}{{51}{}{{}}{{}}}
\bibcite{Aziz94}{{52}{}{{}}{{}}}
\bibcite{Ahmad98}{{53}{}{{}}{{}}}
\bibcite{GrantNotes}{{54}{}{{}}{{}}}
\bibcite{Agren92}{{55}{}{{}}{{}}}
\bibcite{Wu07}{{56}{}{{}}{{}}}
\bibcite{Majaniemi09}{{57}{}{{}}{{}}}
\bibcite{Provatas10}{{58}{}{{}}{{}}}
\bibcite{Zhang09}{{59}{}{{}}{{}}}
\bibcite{dantzig2009b}{{60}{}{{}}{{}}}
\bibcite{Caginalp86}{{61}{}{{}}{{}}}
\bibcite{Cag89}{{62}{}{{}}{{}}}
\bibcite{Almgren99}{{63}{}{{}}{{}}}
\bibcite{Finel08}{{64}{}{{}}{{}}}
\bibcite{Chakin}{{65}{}{{}}{{}}}
\bibcite{Echebarria2010}{{66}{}{{}}{{}}}
\bibcite{landau_statphys}{{67}{}{{}}{{}}}
\bibcite{Bra02}{{68}{}{{}}{{}}}
\bibcite{Moelans11b}{{69}{}{{}}{{}}}
\bibcite{Bro83}{{70}{}{{}}{{}}}
\bibcite{Ben83}{{71}{}{{}}{{}}}
\bibcite{Ben84}{{72}{}{{}}{{}}}
\bibcite{Kes84}{{73}{}{{}}{{}}}
\bibcite{Kes89}{{74}{}{{}}{{}}}
\bibcite{Bre91}{{75}{}{{}}{{}}}
\bibcite{Pom91}{{76}{}{{}}{{}}}
\bibcite{sob95}{{77}{}{{}}{{}}}
\bibcite{sob97}{{78}{}{{}}{{}}}
\bibcite{Wheeler93}{{79}{}{{}}{{}}}
\bibcite{Boettinger94}{{80}{}{{}}{{}}}
\bibcite{Turnbull62}{{81}{}{{}}{{}}}
\bibcite{Cahn62}{{82}{}{{}}{{}}}
\bibcite{Cahn71}{{83}{}{{}}{{}}}
\bibcite{Galenko2002}{{84}{}{{}}{{}}}
\global \chardef \firstnote@num\z@ \relax 
\providecommand\NAT@force@numbers{}\NAT@force@numbers
\bibstyle{unsrt}
\newlabel{LastBibItem}{{84}{90}{Part 5}{section*.80}{}}
\newlabel{LastPage}{{}{91}{}{page.91}{}}
