\relax 
\newlabel{eq_nuc_rate}{{1}{1}}
\@writefile{toc}{\contentsline {section}{\numberline {1}General free energy}{1}}
\newlabel{FE0}{{2}{1}}
\newlabel{FE1}{{3}{1}}
\@writefile{lof}{\contentsline {figure}{\numberline {1}{\ignorespaces Liquid energy landscape}}{2}}
\newlabel{PHD1}{{1}{2}}
\@writefile{lof}{\contentsline {figure}{\numberline {2}{\ignorespaces Nucleation event}}{2}}
\newlabel{nuc_event}{{2}{2}}
\newlabel{Delta_FE}{{4}{3}}
\newlabel{sol_cons}{{5}{3}}
\newlabel{fL_expansion}{{6}{3}}
\newlabel{Delta_FE2}{{7}{3}}
\newlabel{max_cond}{{8}{3}}
\newlabel{maxdf_cond}{{9}{4}}
\newlabel{mu_S_eq_mu_0}{{10}{4}}
\newlabel{nucDF}{{11}{4}}
\newlabel{Delta_FE3}{{12}{4}}
\newlabel{R_crit}{{13}{4}}
\@writefile{lof}{\contentsline {figure}{\numberline {3}{\ignorespaces Graphical representation of driving force for nucleation.}}{5}}
\newlabel{DF_plot}{{3}{5}}
\newlabel{FE_barrier1}{{14}{5}}
\@writefile{toc}{\contentsline {section}{\numberline {2}Dilute limit}{5}}
\newlabel{Dilute_FE}{{15}{5}}
\newlabel{Dilute_mu}{{16}{6}}
\newlabel{Dilute_mu_eq}{{17}{6}}
\newlabel{Dilute_Delta_om}{{19}{6}}
\newlabel{vant_Hoff}{{20}{6}}
\newlabel{Dilute_Delta_om2}{{21}{6}}
\newlabel{Dilute_Delta_om3}{{22}{6}}
\@writefile{toc}{\contentsline {section}{\numberline {3}Notes on the implementation of grain nucleation on phase field simulations}{7}}
\@writefile{toc}{\contentsline {section}{\numberline {4}Homogeneous Nucleation}{7}}
\newlabel{eq_nuc_prob}{{23}{7}}
\newlabel{eq_nuc_rate}{{24}{7}}
\newlabel{eq_e_barrier}{{25}{8}}
\newlabel{eq_bulk_df}{{26}{8}}
